.....
----------------------------------------------------------------------
Ran 5 tests in 0.001s

OK
Name               Stmts   Miss Branch BrPart  Cover   Missing
--------------------------------------------------------------
Diplomacy.py          84      0     66      4    97%   18->exit, 30->28, 104->95, 109->86
TestDiplomacy.py      27      0      0      0   100%
--------------------------------------------------------------
TOTAL                111      0     66      4    98%
