.......
----------------------------------------------------------------------
Ran 7 tests in 0.001s

OK
Name               Stmts   Miss Branch BrPart  Cover   Missing
--------------------------------------------------------------
Diplomacy.py         108     18     50      7    82%   11->exit, 23-30, 33-34, 44->exit, 49->exit, 66, 70->72, 97, 141, 159, 169-172, 178-184
TestDiplomacy.py      48      0      2      1    98%   87->exit
--------------------------------------------------------------
TOTAL                156     18     52      8    86%
